{
  "data": [
    {
      "id": "vxSJZIMBs8KJU9-1y5nl",
      "name": "LOGISTIC_REGRESSION",
      "algorithm": "LOGISTIC_REGRESSION",
      "context": { "target": "class" },
      "trainTime": 1663839095781
    },
    {
      "id": "khSBZIMBs8KJU9-1L5nB",
      "name": "LOGISTIC_REGRESSION",
      "algorithm": "LOGISTIC_REGRESSION",
      "context": { "target": "class" },
      "trainTime": 1663838531521
    },
    {
      "id": "wRR6ZIMBs8KJU9-1L5h0",
      "name": "LOGISTIC_REGRESSION",
      "algorithm": "LOGISTIC_REGRESSION",
      "context": { "target": "class" },
      "trainTime": 1663838072692
    },
    {
      "id": "IBTtY4MBs8KJU9-1kZck",
      "name": "RCF_SUMMARIZE",
      "algorithm": "RCF_SUMMARIZE",
      "context": { "distance_type": "L2", "max_k": 2 },
      "trainTime": 1663828857123
    },
    {
      "id": "HxTtY4MBs8KJU9-1T5fj",
      "name": "RCF_SUMMARIZE",
      "algorithm": "RCF_SUMMARIZE",
      "context": { "distance_type": "L1", "max_k": 2 },
      "trainTime": 1663828840419
    },
    {
      "id": "-xQLX4MBs8KJU9-1NpbF",
      "name": "KMEANS",
      "algorithm": "KMEANS",
      "context": {},
      "trainTime": 1663746913988
    },
    {
      "id": "zRQPXoMBs8KJU9-1HZa-",
      "name": "KMEANS",
      "algorithm": "KMEANS",
      "context": {
        "centroids": 2,
        "distance_type": "EUCLIDEAN",
        "iterations": 10
      },
      "trainTime": 1663730392510
    },
    {
      "id": "nBRyWoMBs8KJU9-165ZO",
      "name": "KMEANS",
      "algorithm": "KMEANS",
      "context": {
        "centroids": 2,
        "distance_type": "COSINE",
        "iterations": 100
      },
      "trainTime": 1663669824334
    },
    {
      "id": "mxRyWoMBs8KJU9-10pYB",
      "name": "KMEANS",
      "algorithm": "KMEANS",
      "context": { "centroids": 2, "distance_type": "L1", "iterations": 10 },
      "trainTime": 1663669817857
    },
    {
      "id": "mhRyWoMBs8KJU9-1vZbI",
      "name": "KMEANS",
      "algorithm": "KMEANS",
      "context": { "centroids": 2, "distance_type": "L1", "iterations": 10 },
      "trainTime": 1663669812680
    },
    {
      "id": "mRRyWoMBs8KJU9-1l5ba",
      "name": "KMEANS",
      "algorithm": "KMEANS",
      "context": {
        "centroids": 2,
        "distance_type": "EUCLIDEAN",
        "iterations": 10
      },
      "trainTime": 1663669802970
    },
    {
      "id": "mBRyWoMBs8KJU9-1gpa1",
      "name": "KMEANS",
      "algorithm": "KMEANS",
      "context": {
        "centroids": 2,
        "distance_type": "EUCLIDEAN",
        "iterations": 10
      },
      "trainTime": 1663669797556
    },
    {
      "id": "jRRQWoMBs8KJU9-1RpZK",
      "name": "KMEANS",
      "algorithm": "KMEANS",
      "context": {
        "centroids": 2,
        "distance_type": "EUCLIDEAN",
        "iterations": 10
      },
      "trainTime": 1663667553865
    },
    {
      "id": "AhS6WYMBs8KJU9-1dZaC",
      "name": "KMEANS",
      "algorithm": "KMEANS",
      "context": {
        "centroids": 2,
        "distance_type": "COSINE",
        "iterations": 10000
      },
      "trainTime": 1663657735554
    },
    {
      "id": "ARS6WYMBs8KJU9-1cZbo",
      "name": "KMEANS",
      "algorithm": "KMEANS",
      "context": {
        "centroids": 2,
        "distance_type": "COSINE",
        "iterations": 10000
      },
      "trainTime": 1663657734632
    }
  ],
  "pagination": {
    "currentPage": 1,
    "pageSize": 15,
    "totalRecords": 36,
    "totalPages": 3
  }
}
